…
In the above example, you can see that there is data from two
instruments, `super_hero_powers` and `heroes_information`. From the
`structure` column, you can see that the `super_hero_powers` instrument
is *repeating* and the `heroes_information` instrument is
*nonrepeating*.

Let’s take a look at `heroes_information`:

``` r
heroes_information <- superheroes_data$redcap_data[[2]]

heroes_information
#> # A tibble: 734 × 11
#>    record_id name     gender eye_c…¹ race  hair_…² height weight publi…³ skin_…⁴
#>        <dbl> <chr>    <chr>  <chr>   <chr> <chr>    <dbl>  <dbl> <chr>   <chr>  
#>  1         0 A-Bomb   Male   yellow  Human No Hair    203    441 Marvel… -      
#>  2         1 Abe Sap… Male   blue    Icth… No Hair    191     65 Dark H… blue   
#>  3         2 Abin Sur Male   blue    Unga… No Hair    185     90 DC Com… red    
#>  4         3 Abomina… Male   green   Huma… No Hair    203    441 Marvel… -      
#>  5         4 Abraxas  Male   blue    Cosm… Black      -99    -99 Marvel… -      
#>  6         5 Absorbi… Male   blue    Human No Hair    193    122 Marvel… -      
#>  7         6 Adam Mo… Male   blue    -     Blond      -99    -99 NBC - … -      
#>  8         7 Adam St… Male   blue    Human Blond      185     88 DC Com… -      
#>  9         8 Agent 13 Female blue    -     Blond      173     61 Marvel… -      
#> 10         9 Agent B… Male   brown   Human Brown      178     81 Marvel… -      
#> # … with 724 more rows, 1 more variable: alignment <chr>, and abbreviated
#> #   variable names ¹​eye_color, ²​hair_color, ³​publisher, ⁴​skin_color
#> # ℹ Use `print(n = ...)` to see more rows, and `colnames()` to see all variable names
```
…
